module 3soat-9-customer-lambda

go 1.22

require (
	github.com/aws/aws-lambda-go v1.47.0
	github.com/aws/aws-sdk-go v1.55.1
	github.com/golang-jwt/jwt/v5 v5.2.1
	github.com/stretchr/testify v1.9.0
)

require (
	github.com/davecgh/go-spew v1.1.1 // indirect
	github.com/jmespath/go-jmespath v0.4.0 // indirect
	github.com/pmezard/go-difflib v1.0.0 // indirect
	github.com/stretchr/objx v0.5.2 // indirect
	golang.org/x/crypto v0.25.0 // indirect
	gopkg.in/yaml.v3 v3.0.1 // indirect
)
